{
    "declarations": {},
    "sources": {},
    "libraries": {
        "GoogleMaps": {
            "name": "GoogleMaps",
            "type": "podspec",
            "spec": "~> 2.7.0",
            "count": 1
        },
        "FirebaseMessaging": {
            "name": "FirebaseMessaging",
            "type": "podspec",
            "spec": "~> 2.0.0",
            "count": 1
        }
    }
}